{
	"ImportPath": "gitlab.com/gitlab-org/gitlab-ci-multi-runner",
	"GoVersion": "go1.4.2",
	"Packages": [
		"./..."
	],
	"Deps": [
		{
			"ImportPath": "github.com/BurntSushi/toml",
			"Comment": "v0.1.0-9-g3883ac1",
			"Rev": "3883ac1ce943878302255f538fce319d23226223"
		},
		{
			"ImportPath": "github.com/Sirupsen/logrus",
			"Comment": "v0.8.7",
			"Rev": "418b41d23a1bf978c06faea5313ba194650ac088"
		},
		{
			"ImportPath": "github.com/ayufan/golang-kardianos-service",
			"Rev": "c03d3ad4a038e0183fcddfe1f640089b894796c5"
		},
		{
			"ImportPath": "github.com/codegangsta/cli",
			"Comment": "1.2.0-139-g142e6cd",
			"Rev": "142e6cd241a4dfbf7f07a018f1f8225180018da4"
		},
		{
			"ImportPath": "github.com/fsouza/go-dockerclient",
			"Rev": "163268693e2cf8be2920158b59ef438fc77b85e2"
		},
		{
			"ImportPath": "github.com/golang/mock/gomock",
			"Rev": "06883d979f10cc178f2716846215c8cf90f9e363"
		},
		{
			"ImportPath": "github.com/kardianos/osext",
			"Rev": "efacde03154693404c65e7aa7d461ac9014acd0c"
		},
		{
			"ImportPath": "github.com/ramr/go-reaper",
			"Rev": "1a6cbc07ef2f7e248769ef4efd80aaa16f97ec12"
		},
		{
			"ImportPath": "github.com/stretchr/objx",
			"Rev": "cbeaeb16a013161a98496fad62933b1d21786672"
		},
		{
			"ImportPath": "github.com/stretchr/testify/assert",
			"Rev": "1297dc01ed0a819ff634c89707081a4df43baf6b"
		},
		{
			"ImportPath": "github.com/stretchr/testify/mock",
			"Rev": "1297dc01ed0a819ff634c89707081a4df43baf6b"
		},
		{
			"ImportPath": "gitlab.com/ayufan/golang-cli-helpers",
			"Rev": "0a14b63a7466ee44de4a90f998fad73afa8482bf"
		},
		{
			"ImportPath": "golang.org/x/crypto/ssh",
			"Rev": "1351f936d976c60a0a48d728281922cf63eafb8d"
		},
		{
			"ImportPath": "gopkg.in/yaml.v1",
			"Rev": "9f9df34309c04878acc86042b16630b0f696e1de"
		}
	]
}
